{
	"id": "f14f0bed-23b6-40f2-a06a-684889d7cc7a",
	"name": "IMBD",
	"values": [
		{
			"key": "host_url",
			"value": "http://localhost:3000",
			"enabled": true
		},
		{
			"key": "adminId",
			"value": "",
			"enabled": true
		},
		{
			"key": "adminJwtToken",
			"value": "",
			"enabled": true
		},
		{
			"key": "userId",
			"value": "",
			"enabled": true
		},
		{
			"key": "userJwtToken",
			"value": "",
			"enabled": true
		},
		{
			"key": "movieId",
			"value": "",
			"enabled": true
		}
	],
	"_postman_variable_scope": "environment",
	"_postman_exported_at": "2020-08-17T23:28:09.881Z",
	"_postman_exported_using": "Postman/7.30.1"
}